------------------------------------------------------------------------
r1017645 | scripty | 2009-08-31 03:01:37 +0000 (Mon, 31 Aug 2009) | 1 line

SVN_SILENT made messages (.desktop file)
------------------------------------------------------------------------
r1024446 | scripty | 2009-09-16 16:13:48 +0000 (Wed, 16 Sep 2009) | 1 line

SVN_SILENT made messages (.desktop file)
------------------------------------------------------------------------
